[gd_scene load_steps=4 format=2]

[ext_resource path="res://Scenes/Ball1.tscn" type="PackedScene" id=1]
[ext_resource path="res://half_pipe.dae" type="PackedScene" id=2]
[ext_resource path="res://Scenes/PlungerAssembly.tscn" type="PackedScene" id=3]

[node name="Scale1" type="Spatial"]

[node name="HalfPipe" parent="." instance=ExtResource( 2 )]
transform = Transform( 1, 0, 0, 0, 1, 0, 0, 0, 1, 0, 0, 34 )

[node name="Ball1" parent="." instance=ExtResource( 1 )]
transform = Transform( 1, 0, 0, 0, 1, 0, 0, 0, 1, 0, 9, 27.5 )

[node name="PlungerAssembly" parent="." instance=ExtResource( 3 )]
transform = Transform( -4.37114e-07, 0, 10, -7.07107, 7.07107, -3.09086e-07, -7.07107, -7.07107, -3.09086e-07, 0, 0, -36 )
ball_scene = ExtResource( 1 )

[node name="Camera" type="Camera" parent="."]
transform = Transform( -4.37114e-08, 0, 1, 0, 1, 0, -1, 0, -4.37114e-08, 55, 5, 0 )
